# Copyright 2021 Henrique Dante de Almeida
#
# Permission to use, copy, modify, and/or distribute this software for any
# purpose with or without fee is hereby granted, provided that the above
# copyright notice and this permission notice appear in all copies.
#
# THE SOFTWARE IS PROVIDED "AS IS" AND THE AUTHOR DISCLAIMS ALL WARRANTIES
# WITH REGARD TO THIS SOFTWARE INCLUDING ALL IMPLIED WARRANTIES OF
# MERCHANTABILITY AND FITNESS. IN NO EVENT SHALL THE AUTHOR BE LIABLE FOR
# ANY SPECIAL, DIRECT, INDIRECT, OR CONSEQUENTIAL DAMAGES OR ANY DAMAGES
# WHATSOEVER RESULTING FROM LOSS OF USE, DATA OR PROFITS, WHETHER IN AN
# ACTION OF CONTRACT, NEGLIGENCE OR OTHER TORTIOUS ACTION, ARISING OUT OF
# OR IN CONNECTION WITH THE USE OR PERFORMANCE OF THIS SOFTWARE.

set datafile separator ';'
set key bottom
set xtics 10000 rotate by 45 right offset 0,-0.2
set mytics
set mxtics 2
set style line 40 linetype -1 lw 0.5 linecolor '#00dddddd'
set grid x, y, my, mx ls 40, ls 40
set palette model HSV defined (0 1 1 0.9, 1 0 1 0.9)
unset colorbox
set title sprintf('%s - %s bitrate x VMAF', ARG2, ARG3) noenhanced
set xlabel 'kbps'
set ylabel 'VMAF'
plot for [idx=0:ARG4-1] ARG1 index idx using ($6)/1e3:($7) smooth csplines \
        with lines linecolor palette frac ((idx+1.5)/(ARG4+0.5)) notitle, \
	for [idx=0:ARG4-1] ARG1 index idx using ($6)/1e3:($7) with points \
	linecolor palette frac ((idx+1.5)/(ARG4+0.5)) title columnheader(1), \
	ARG1 index int(ARG4) using($6)/1e3:($7) with points title columnheader(1) \
	pointtype 3 linecolor 'black'
